﻿{
  "version": "1.0.0-*",
  "description": "FinanceInfo.Domain Class Library",
  "authors": [ "James" ],
  "tags": [ "" ],
  "projectUrl": "",
  "licenseUrl": "",

  "dependencies": {
    "FinanceInfo.Data": "1.0.0-*",
    "FinanceInfo.Models": "1.0.0-*",
    "System.Net.Http": "4.0.0",
    "System.Text.RegularExpressions": "4.0.11-beta-23516"
  },

  "frameworks": {
    "dnxcore50": {
      "dependencies": {
        "Microsoft.CSharp": "4.0.1-beta-23516",
        "System.Collections": "4.0.11-beta-23516",
        "System.Linq": "4.0.1-beta-23516",
        "System.Runtime": "4.0.21-beta-23516",
        "System.Threading": "4.0.11-beta-23516"
      }
    }
  }
}
